{
    "/js/app.js": "/js/app.js",
    "/css/app.css": "/css/app.css",
    "/js/all.js": "/js/all.js",
    "/css/all.css": "/css/all.css",
    "/css/all_backend.css": "/css/all_backend.css",
    "/js/all_backend.js": "/js/all_backend.js"
}